%YAML 1.1
%TAG !u! tag:unity3d.com,2011:
--- !u!114 &11400000
MonoBehaviour:
  m_ObjectHideFlags: 0
  m_CorrespondingSourceObject: {fileID: 0}
  m_PrefabInstance: {fileID: 0}
  m_PrefabAsset: {fileID: 0}
  m_GameObject: {fileID: 0}
  m_Enabled: 1
  m_EditorHideFlags: 0
  m_Script: {fileID: 11500000, guid: 05ca84e725c7c764aa5ed097918d14b7, type: 3}
  m_Name: ftLocalStorage
  m_EditorClassIdentifier: 
  modifiedAssetPathList:
  - Assets/Bakery/examples/content/sponza/sponza.FBX
  - Assets/Data/Meshes/OBJETOS_ANOMALY_2/libroChico.fbx
  - Assets/Data/Meshes/OBJETOS_ANOMALY_3/FloorSmall.fbx
  - Assets/Data/Meshes/OBJETOS_ANOMALY_3/WallSmall.fbx
  - Assets/Data/Meshes/OBJETOS_ANOMALY_3/WoodPlank.fbx
  - Assets/Data/Meshes/OBJETOS_ANOMALY_3/BottleWalkable.fbx
  - Assets/Data/Meshes/BookOpened.fbx
  - Assets/Data/Meshes/OBJETOS_ANOMALY_3/TinyCrystal.fbx
  - Assets/Data/Meshes/OBJETOS_ANOMALY_3/Scroll.fbx
  - Assets/Data/Meshes/OBJETOS_ANOMALY_-_estanteriaPersonalizable/estanteriaSinBandejas.fbx
  modifiedAssetPaddingHash: d6a958ff09a3ddde3f3fd3d9323fd3d93f3fd3d9b25634b7b74608c8ecc12491f437ed04343fd3d9
